{
  "page":1,
  "total_results":10000,
  "total_pages":500,
  "results":[
    {
      "popularity":151.011,
      "vote_count":3827,
      "video":false,
      "poster_path":"\/dcbPgUymJt6tbUbs7U6L2Jc0wXD.jpg",
      "id":419704,
      "adult":false,"backdrop_path":"\/5BwqwxMEjeFtdknRV792Svo0K1v.jpg","original_language":"en","original_title":"Ad Astra","genre_ids":[18,878],"title":"К звёздам","vote_average":6.1,"overview":"Инженер армейского корпуса путешествует по Галактике в поисках отца, который отправился на поиски внеземной цивилизации 20 лет назад и исчез.","release_date":"2019-09-17"},{"popularity":102.866,"vote_count":5114,"video":false,"poster_path":"\/mCD1ugUVWwa1pOmOACQY8sV7eu9.jpg","id":181812,"adult":false,"backdrop_path":"\/SPkEiZGxq5aHWQ2Zw7AITwSEo2.jpg","original_language":"en","original_title":"Star Wars: The Rise of Skywalker","genre_ids":[28,12,878],"title":"Звёздные войны: Скайуокер. Восход","vote_average":6.6,"overview":"Фильм завершает невероятную историю семьи Скайуокеров, длящуюся уже более сорока лет, и обещает дать ответы на все загадки из предыдущих серий. Зрителя ожидают старые и новые герои, уникальные миры, увлекательные путешествия на край Галактики и грандиозный финал фантастической саги.","release_date":"2019-12-18"},{"popularity":144.828,"vote_count":190,"video":false,"poster_path":"\/9zrbgYyFvwH8sy5mv9eT25xsAzL.jpg","id":531454,"adult":false,"backdrop_path":"\/jMO1icztaUUEUApdAQx0cZOt7b8.jpg","original_language":"en","original_title":"Eurovision Song Contest: The Story of Fire Saga","genre_ids":[35,10402],"title":"Евровидение: История огненной саги","vote_average":6.7,"overview":"В далёком 1974 году, увидев по телевизору выступление на Евровидении группы ABBA с песней «Waterloo», маленький исландский мальчик Ларс твёрдо решил, что когда-нибудь обязательно там выступит и победит. Много лет спустя Ларс уже немолод, всё ещё живёт с отцом, но свою мечту не оставил и исполняет песни собственного сочинения с подругой детства Сигрит. Хотя их группа Fire Saga выступает в местном баре, жители городка не хотят слушать самодеятельность и постоянно требуют кабацкий хит «Jaja Ding Dong». Однажды эльфы услышали просьбы Сигрит, и внезапно Fire Saga получает шанс участвовать в Евровидении.","release_date":"2020-06-26"},{"popularity":72.766,"vote_count":13881,"video":false,"poster_path":"\/291yZULc4NBE9QDxqHGAJUk41j7.jpg","id":11,"adult":false,"backdrop_path":"\/zqkmTXzjkAgXmEWLRsY4UpTWCeo.jpg","original_language":"en","original_title":"Star Wars","genre_ids":[28,12,878],"title":"Звёздные войны: Эпизод IV – Новая надежда","vote_average":8.2,"overview":"Татуин. Планета-пустыня. Уже постаревший рыцарь Джедай Оби Ван Кеноби спасает молодого Люка Скайуокера, когда тот пытается отыскать пропавшего дроида. С этого момента Люк осознает свое истинное назначение: он один из рыцарей Джедай. В то время как гражданская война охватила галактику, а войска повстанцев ведут бои против сил злого Императора, к Люку и Оби Вану присоединяется отчаянный пилот-наемник Хан Соло, и в сопровождении двух дроидов, R2D2 и C-3PO, этот необычный отряд отправляется на поиски предводителя повстанцев — принцессы Леи.","release_date":"1977-05-25"},{"popularity":109.744,"vote_count":516,"video":false,"poster_path":"\/mhDdx7o7hhrxrikq8aqPLLnS9w8.jpg","id":475430,"adult":false,"backdrop_path":"\/o0F8xAt8YuEm5mEZviX5pEFC12y.jpg","original_language":"en","original_title":"Artemis Fowl","genre_ids":[12,14,878,10751],"title":"Артемис Фаул","vote_average":5.9,"overview":"Укрытый от посторонних глаз, глубоко под поверхностью земной коры таится целый мир, населенный гномами, эльфами, пикси, лепреконами, брауни и другими волшебными существами. Они спрятались от людей и создали свою собственную весьма развитую цивилизацию. Их тайна так и оставалась бы нераскрытой, если бы не юный Артемис Фаул, прирождённый мошенник и единственный наследник древнего рода криминальных гениев. Он сумел не только найти доказательства существования подземного мира, но и придумал дерзкий план — ограбить его обитателей.","release_date":"2020-06-12"},{"popularity":81.903,"vote_count":8199,"video":false,"poster_path":"\/mSN0DRhFhHNoBZBdhH6N0bx4DfC.jpg","id":496243,"adult":false,"backdrop_path":"\/ApiBzeaa95TNYliSbQ8pJv4Fje7.jpg","original_language":"ko","original_title":"기생충","genre_ids":[35,18,53],"title":"Паразиты","vote_average":8.5,"overview":"Обычное корейское семейство жизнь не балует. Приходится жить в сыром грязном полуподвале, воровать интернет у соседей и перебиваться случайными подработками. Однажды друг сына семейства, уезжая на стажировку за границу, предлагает тому заменить его и поработать репетитором у старшеклассницы в богатой семье Пак. Подделав диплом о высшем образовании, парень отправляется в шикарный дизайнерский особняк и производит на хозяйку дома хорошее впечатление. Тут же ему в голову приходит необычный план по трудоустройству сестры.","release_date":"2019-05-30"},{"popularity":94.581,"vote_count":4877,"video":false,"poster_path":"\/z7S7EX1YHOhCX9afC9aSyStJFEE.jpg","id":454626,"adult":false,"backdrop_path":"\/stmYfCUGd8Iy6kAMBr6AmWqx8Bq.jpg","original_language":"en","original_title":"Sonic the Hedgehog","genre_ids":[28,35,878,10751],"title":"Соник в кино","vote_average":7.5,"overview":"Отвязный ярко-синий ёжик Соник вместе с новообретённым — человеческим — лучшим другом Томом Вачовски знакомится со сложностями жизни на Земле и противостоит злодейскому доктору Роботнику, который хочет пленить Соника и использовать его безграничные суперсилы для завоевания мирового господства.","release_date":"2020-02-12"},{"popularity":79.571,"id":299536,"video":false,"vote_count":18733,"vote_average":8.3,"title":"Мстители: Война бесконечности","release_date":"2018-04-25","original_language":"en","original_title":"Avengers: Infinity War","genre_ids":[12,28,878],"backdrop_path":"\/lmZFxXgJE3vgrciwuDib0N8CfQo.jpg","adult":false,"overview":"Пока Мстители и их союзники продолжают защищать мир от различных опасностей, с которыми не смог бы справиться один супергерой, новая угроза возникает из космоса: Танос. Межгалактический тиран преследует цель собрать все шесть Камней Бесконечности — артефакты невероятной силы, с помощью которых можно менять реальность по своему желанию. Всё, с чем Мстители сталкивались ранее, вело к этому моменту — судьба Земли никогда ещё не была столь неопределённой.","poster_path":"\/qIUFg6tzKeK5bUDguonWCAFceNB.jpg"},{"popularity":80.377,"vote_count":13491,"video":false,"poster_path":"\/498AdCguRoD1mpizIeKi8nDTOQO.jpg","id":475557,"adult":false,"backdrop_path":"\/f5F4cRhQdUbyVbB5lTNCwUzD6BP.jpg","original_language":"en","original_title":"Joker","genre_ids":[80,18,53],"title":"Джокер","vote_average":8.2,"overview":"Готэм, начало 1980-х годов. Комик Артур Флек живёт с больной матерью, которая с детства учит его «ходить с улыбкой». Пытаясь нести в мир хорошее и дарить людям радость, Артур сталкивается с человеческой жестокостью и постепенно приходит к выводу, что этот мир получит от него не добрую улыбку, а ухмылку злодея Джокера.","release_date":"2019-10-02"},{"popularity":124.401,"vote_count":36,"video":false,"poster_path":"\/ucktgbaMSaETUDLUBp1ubGD6aNj.jpg","id":619592,"adult":false,"backdrop_path":"\/jAtO4ci8Tr5jDmg33XF3OZ8VPah.jpg","original_language":"en","original_title":"Force of Nature","genre_ids":[28,18],"title":"Сила природы","vote_average":5.1,"overview":"Детектив полиции в отставке во время урагана вместе с остальными жильцами оказывается в ловушке в многоэтажном здании. Там же группа опасных преступников планирует провернуть ограбление.","release_date":"2020-07-02"},{"popularity":69.665,"vote_count":22886,"video":false,"poster_path":"\/rPrqBqZLl8m6sUQmZCchqW7IEYo.jpg","id":157336,"adult":false,"backdrop_path":"\/xJHokMbljvjADYdit5fK5VQsXEG.jpg","original_language":"en","original_title":"Interstellar","genre_ids":[12,18,878],"title":"Интерстеллар","vote_average":8.3,"overview":"Наше время на Земле подошло к концу, команда исследователей берёт на себя самую важную миссию в истории человечества — путешествие за пределы нашей галактики, чтобы узнать есть ли у человечества будущее среди звёзд.","release_date":"2014-11-05"},{"popularity":68.929,"vote_count":6296,"video":false,"poster_path":"\/plZxyFBQsZTCz5yFHjwT6xjBSOx.jpg","id":420817,"adult":false,"backdrop_path":"\/v4yVTbbl8dE1UP2dWu5CLyaXOku.jpg","original_language":"en","original_title":"Aladdin","genre_ids":[12,35,14,10749,10751],"title":"Аладдин","vote_average":7.1,"overview":"Молодой воришка по имени Аладдин хочет стать принцем, чтобы жениться на принцессе Жасмин. Тем временем визирь Аграбы Джафар, намеревается захватить власть над Аграбой, а для этого он стремится заполучить волшебную лампу, хранящуюся в пещере чудес, доступ к которой разрешен лишь тому, кого называют «алмаз неограненный», и этим человеком является никто иной как сам Аладдин.","release_date":"2019-05-22"},{"popularity":68.368,"id":671,"video":false,"vote_count":17319,"vote_average":7.9,"title":"Гарри Поттер и философский камень","release_date":"2001-11-16","original_language":"en","original_title":"Harry Potter and the Philosopher's Stone","genre_ids":[12,14,10751],"backdrop_path":"\/hziiv14OpD73u9gAak4XDDfBKa2.jpg","adult":false,"overview":"Обычный лондонский мальчик Гарри Поттер на 11-м году жизни узнает, что он — осиротевший сын двух могущественных волшебников, и сам обладает магической силой. В Хогвартской школе чародейства и волшебства Гарри попадает в водоворот невероятных приключений. Он изучает квиддич — спорт высшего пилотажа, играет в захватывающую игру живыми шахматными фигурами, встречается с Темным Волшебником, который хочет его уничтожить.","poster_path":"\/vkgM120mI0RH07njaFFlzG8wU4y.jpg"},{"popularity":65.321,"vote_count":5159,"video":false,"poster_path":"\/p4XurAYUUxsJgHEnGsPSqNMskYr.jpg","id":330457,"adult":false,"backdrop_path":"\/xJWPZIYOEFIjZpBL7SVBGnzRYXp.jpg","original_language":"en","original_title":"Frozen II","genre_ids":[12,16,10751],"title":"Холодное сердце 2","vote_average":7.3,"overview":"Анна, Эльза, Кристоф, его верный олень Свен и никогда не унывающий снеговик Олаф должны будут покинуть уютное королевство Эренделл и отправиться ещё дальше на север, в путешествие, которое приведет их к истокам древних легенд и поможет раскрыть тайны, касающиеся прошлого их родной страны.","release_date":"2019-11-20"},{"popularity":72.255,"vote_count":4759,"video":false,"poster_path":"\/wh5FEKiNeirvD02T2Ui22duZGCZ.jpg","id":495764,"adult":false,"backdrop_path":"\/9xNOiv6DZZjH7ABoUUDP0ZynouU.jpg","original_language":"en","original_title":"Birds of Prey (and the Fantabulous Emancipation of One Harley Quinn)","genre_ids":[28,35,80],"title":"Хищные птицы: Потрясающая история Харли Квинн","vote_average":7.2,"overview":"В центре сюжета окажется Харли Куинн, которая расстаётся со своим возлюбленным Джокером и собирает собственную команду опасных супергероинь. В их числе Бэтгёрл, Чёрная канарейка, Охотница и Рене Монтойя. Дерзким девушкам предстоит вступить в схватку с Чёрной Маской, который является криминальным авторитетом Готэма.","release_date":"2020-02-05"},{"popularity":57.032,"vote_count":9971,"video":false,"poster_path":"\/19fnHQ9g3Sy87rHKtw3wqhkBGOh.jpg","id":122917,"adult":false,"backdrop_path":"\/bVmSXNgH1gpHYTDyF9Q826YwJT5.jpg","original_language":"en","original_title":"The Hobbit: The Battle of the Five Armies","genre_ids":[28,12,14],"title":"Хоббит: Битва пяти воинств","vote_average":7.3,"overview":"Когда отряд из тринадцати гн��мов нанимал ��оббита Бильбо Бэгинса в качестве взломщика и четырнадцатого, «счастливого», участника похода к Одинокой горе, Бильбо полагал, что его приключения закончатся, когда он выполнит свою задачу — найдет сокровище, которое так необходимо предводителю гномов Торину. Путешествие в Эребор, захваченное драконом Смаугом королевство гномов, оказалось еще более опасным, чем предполагали гномы и даже Гэндальф — мудрый волшебник, протянувший Торину и его отряду руку помощи.  В погоню за гномами устремилась армия орков, ведомых пробудившимся в руинах древним злом, а эльфы и люди, с которыми Бильбо и его товарищам пришлось иметь дело во время путешествия и которые пострадали от последствий желания гномов вернуть свой дом, предъявили права на щедрое вознаграждение — часть сокровищ Одинокой горы. Скоро неподалеку от Одинокой горы встретятся пять армий, и лишь кровопролитная битва определит результаты смелого гномьего похода.","release_date":"2014-12-10"},{"popularity":68.127,"id":530915,"video":false,"vote_count":5572,"vote_average":7.9,"title":"1917","release_date":"2019-12-25","original_language":"en","original_title":"1917","genre_ids":[10752,18,28,36],"backdrop_path":"\/cqa3sa4c4jevgnEJwq3CMF8UfTG.jpg","adult":false,"overview":"1917 год, разгар Первой мировой войны. Двум юным молодым солдатам поручают смертельно опасную миссию. Они должны пересечь вражескую территорию и доставить секретное сообщение, которое предотвратит неминуемую гибель сотен солдат… Смогут ли они выиграть гонку со временем?","poster_path":"\/9PtIdTW2geKXQbOG17dKLe1JWu4.jpg"},{"popularity":60.863,"vote_count":2503,"video":false,"poster_path":"\/d2lVpxBRboVPL49n6fsUAWX8aUc.jpg","id":290859,"adult":false,"backdrop_path":"\/a6cDxdwaQIFjSkXf7uskg78ZyTq.jpg","original_language":"en","original_title":"Terminator: Dark Fate","genre_ids":[28,12,878],"title":"Терминатор: Тёмные судьбы","vote_average":6.5,"overview":"Мексика. Милая девушка Даниэла Рамос, а для друзей просто Дани, вместе с братом приходит с утра работать на завод, но там выясняется, что их вскоре заменят автоматикой. И это не единственная угроза, которую представляют для девушки машины: тут же на неё нападает присланная из будущего и практически неубиваемая модель терминатора REV-9. Но на защиту Дани встаёт Грэйс — тоже прибывшая из будущего женщина, модифицировавшая свои боевые характеристики до терминаторского уровня. Вскоре к ним на помощь придёт и Сара Коннор, которая теперь превратилась в настоящую охотницу на роботов-убийц.","release_date":"2019-10-23"},{"popularity":64.859,"vote_count":13294,"video":false,"poster_path":"\/4YZrNmoVVgs5i1OCbQiT9TLKBrJ.jpg","id":807,"adult":false,"backdrop_path":"\/4U4q1zjIwCZTNkp6RKWkWPuC7uI.jpg","original_language":"en","original_title":"Se7en","genre_ids":[80,9648,53],"title":"Семь","vote_average":8.3,"overview":"Детектив Уильям Сомерсет — ветеран уголовного сыска, мечтающий уйти на пенсию и уехать подальше от города и грешных обитателей. За 7 дней до пенсии на Сомерсета сваливаются две неприятности: молодой напарник Миллс и особо изощренное убийство. Острый ум опытного сыщика сразу определяет, что за этим преступлением, скорее всего, последуют другие. Новости подтверждают его догадку.","release_date":"1995-09-22"},{"popularity":65.616,"vote_count":26316,"video":false,"poster_path":"\/7SivRwOLuA6DR09zNJ9JIo14GyX.jpg","id":27205,"adult":false,"backdrop_path":"\/DaNRMZskVejsye2msqqwDuyOjk.jpg","original_language":"en","original_title":"Inception","genre_ids":[28,12,878],"title":"Начало","vote_average":8.3,"overview":"Дом Кобб — талантливый вор, лучший из лучших в опасном искусстве извлечения: он крадет ценные секреты из глубин подсознания во время сна, когда человеческий разум наиболее уязвим. Редкие способности Кобба сделали его ценным игроком в привычном к предательству мире промышленного шпионажа, но они же превратили его в извечного беглеца и лишили всего, что он когда-либо любил.","release_date":"2010-07-15"}]}
